U
L
D
R
U
U
U
L
L
D
L
D
R
U
U
L
D
D
R
U
L
U
R
R
D
L
U
L
D
R
R
U
L
D
L
U
R
D
L
U
R
R
D
L
L
U
R
D
R
U
L
L
D
R
D
L
D
R
U
L
D
R
U
U
L
D
D
R
U
L
U
R
D
D
R
U
R
D
L
L
U
U
R
D
L
D
R
U
U
L
D
R
D
L
U
L
D
R
U
L
D
R
U
U
L
D
D
R
U
U
L
D
R
D
R
R
U
L
D
L
U
L
U
R
D
D
L
U
U
R
D
D
L
U
R
R
R
D
L
U
L
D
L
U
R
D
R
U
L
U
R
D
D
L
U
U
R
D
D
R
U
L
L
D
R
U
R
D
L
L
U
R
U
L
D
L
U
R
R
D
L
D
R
U
U
L
L
D
R
U
R
D
D
L
U
R
D
L
U
L
D
R
R
U
U
L
D
D
L
U
R
U
U
L
D
R
R
U
L
L
D
R
U
L
D
R
R
U
L
L
D
R
U
R
D
L
L
D
R
U
L
U
R
R
D
L
D
L
U
R
R
U
L
L
D
R
R
U
L
L
D
R
U
R
D
L
L
U
R
R
D
L
U
L
D
R
R
U
L
L
D
R
U
R
D
L
L
U
R
D
L
D
R
U
U
R
D
L
U
L
D
R
D
L
U
R
R
U
L
L
D
R
U
R
R
D
L
L
L
U
R
R
R
D
L
U
L
L
D
R
R
R
U
L
D
L
L
U
R
R
R
D
L
L
U
L
D
R
R
D
R
D
L
U
U
R
U
L
D
R
D
D
L
U
R
D
L
U
U
R
D
L
D
R
U
L
D
R
U
U
L
U
R
D
L
D
D
R
U
L
U
R
U
L
D
R
D
D
L
U
U
U
R
D
L
D
D
R
U
U
U
L
D
R
D
D
L
U
U
U
R
D
D
L
D
R
U
U
U
L
1 0 15 2 
8 7 6 3 
9 5 14 10 
12 13 11 4 
